[
  {
    "id": 1,
    "label": "1",
    "level": 0,
    "nodeAttributes": {},
    "children": [2, 3]
  },
  {
    "id": 2,
    "label": "2",
    "level": 1,
    "nodeAttributes": {},
    "children": [1, 3]
  },
  {
    "id": 3,
    "label": "3",
    "level": 2,
    "nodeAttributes": {},
    "children": []
  }
]